<svg width="664" height="295" viewBox="0 0 664 295" fill="none" xmlns="http://www.w3.org/2000/svg">
<path d="M197.143 177.5C198.476 177.5 199.143 180.667 199.143 187C199.143 189.667 198.81 192.333 198.143 195C197.81 197.667 197.31 199 196.643 199C186.643 198.333 172.643 197.667 154.643 197V276C154.643 279.667 153.31 282 150.643 283L129.643 293.5C127.643 294.167 126.643 294.5 126.643 294.5C125.643 294.5 125.143 293.167 125.143 290.5V196.5C104.143 195.833 63.9762 195.5 4.64286 195.5C2.97619 195.5 1.64286 194.833 0.642857 193.5C-0.357143 192.167 -0.190476 190.833 1.14286 189.5L147.143 1.5C147.81 0.833328 148.81 0.499994 150.143 0.499994C151.143 0.499994 152.143 0.833328 153.143 1.5C154.143 1.83333 154.643 2.5 154.643 3.5V178.5C162.31 178.5 176.476 178.167 197.143 177.5ZM29.1429 180.5C57.8095 180.5 89.8095 180.167 125.143 179.5V51L26.6429 177C25.6429 178 25.3095 178.833 25.6429 179.5C26.3095 180.167 27.4762 180.5 29.1429 180.5Z" fill="white"/>
<path d="M335.729 206C316.062 206 298.395 201.5 282.729 192.5C267.395 183.5 255.229 171.167 246.229 155.5C237.562 139.5 233.229 121.5 233.229 101.5C233.229 81.8333 237.562 64.3333 246.229 49C255.229 33.6667 267.562 21.6667 283.229 13C298.895 4.33333 316.562 0 336.229 0C355.562 0 372.895 4.5 388.229 13.5C403.562 22.1667 415.395 34.3333 423.729 50C432.395 65.6667 436.729 83.3333 436.729 103C436.729 122.667 432.395 140.333 423.729 156C415.062 171.667 403.062 184 387.729 193C372.395 201.667 355.062 206 335.729 206ZM341.229 199C361.229 199 376.229 191 386.229 175C396.562 158.667 401.729 136.667 401.729 109C401.729 75.6667 394.895 50.3333 381.229 33C367.895 15.6667 351.062 7 330.729 7C311.062 7 295.562 15.3333 284.229 32C273.229 48.6667 267.729 70.5 267.729 97.5C267.729 127.167 274.395 151.5 287.729 170.5C301.062 189.5 318.895 199 341.229 199Z" fill="white"/>
<path d="M661.01 177.5C662.343 177.5 663.01 180.667 663.01 187C663.01 189.667 662.677 192.333 662.01 195C661.677 197.667 661.177 199 660.51 199C650.51 198.333 636.51 197.667 618.51 197V276C618.51 279.667 617.177 282 614.51 283L593.51 293.5C591.51 294.167 590.51 294.5 590.51 294.5C589.51 294.5 589.01 293.167 589.01 290.5V196.5C568.01 195.833 527.843 195.5 468.51 195.5C466.843 195.5 465.51 194.833 464.51 193.5C463.51 192.167 463.677 190.833 465.01 189.5L611.01 1.5C611.677 0.833328 612.677 0.499994 614.01 0.499994C615.01 0.499994 616.01 0.833328 617.01 1.5C618.01 1.83333 618.51 2.5 618.51 3.5V178.5C626.177 178.5 640.343 178.167 661.01 177.5ZM493.01 180.5C521.677 180.5 553.677 180.167 589.01 179.5V51L490.51 177C489.51 178 489.177 178.833 489.51 179.5C490.177 180.167 491.343 180.5 493.01 180.5Z" fill="white"/>
</svg>
