<svg width="818" height="441" viewBox="0 0 818 441" fill="none" xmlns="http://www.w3.org/2000/svg">
<path d="M188.605 115.04C190.045 115.4 190.045 117.92 188.605 118.28C181.405 119.72 174.205 119.72 167.005 120.08C160.165 120.44 153.685 120.8 146.845 120.8C126.685 121.88 106.525 123.32 86.3653 125.48C77.7253 126.56 68.7253 127.64 59.7253 128.36C52.5253 141.68 45.6853 155 39.2053 168.68C32.7253 182 26.6053 195.68 20.8453 209.36C14.7253 222.68 9.68531 236.72 2.84531 249.68C2.12531 251.12 -0.0346925 250.4 0.325308 248.6C4.28531 232.4 11.1253 216.92 17.6053 201.44C28.4053 176.96 40.2853 152.84 52.8853 129.08C47.8453 129.8 42.8053 130.16 38.1253 130.88C34.5253 131.24 31.2853 131.6 27.6853 131.96C26.2453 131.96 24.8053 132.32 23.3653 132.32C21.2053 132.68 20.1253 131.96 17.9653 132.32C17.2453 132.32 17.2453 131.24 17.9653 131.24C19.0453 130.88 20.1253 129.8 21.5653 129.8C22.2853 129.44 23.3653 129.44 24.0853 129.08C25.8853 129.08 27.6853 128.72 29.4853 128.36C32.7253 128 35.9653 127.28 39.5653 126.92C44.9653 125.84 50.0053 125.12 55.4053 124.4C56.1253 123.32 56.4853 122.24 57.2053 121.52C64.4053 108.2 71.9653 95.24 79.8853 82.64C87.8053 70.04 95.7253 57.08 104.725 45.56C105.805 44.12 107.605 45.92 106.885 47.36C98.6053 61.76 89.6053 75.8 80.9653 90.2C74.8453 101.36 68.3653 112.16 62.6053 123.32C81.3253 120.44 100.405 118.28 119.485 116.84C129.925 115.76 140.725 115.4 151.165 114.68C163.405 114.32 176.365 113.24 188.605 115.04ZM271.045 7.75998C273.205 8.47997 272.845 11.36 270.685 11.36C263.125 11 255.565 9.55998 248.365 8.47997C240.805 7.39996 233.245 7.03997 225.685 6.31998C198.325 4.87998 170.965 6.67997 144.325 12.08C131.005 14.6 118.045 17.84 105.085 21.8C92.1253 26.12 79.8853 31.16 67.2853 36.2C66.5653 36.56 66.2053 35.12 66.9253 34.76C79.8853 27.2 94.2853 21.44 108.685 16.76C134.605 7.75998 161.605 2.71998 188.965 0.919984C202.645 0.199971 216.685 0.199971 230.725 0.919984C237.565 1.63997 244.045 2.35996 250.885 3.07998C257.725 4.15998 264.925 5.23997 271.045 7.75998Z" fill="#C1995B"/>
<path d="M355.499 24.32C355.859 27.56 354.779 31.16 353.699 34.4C352.619 38 351.179 41.24 349.739 44.48C346.139 51.68 341.819 57.8 337.139 63.92C327.059 76.88 315.539 88.76 302.939 99.56C283.139 116.12 261.179 131.6 236.699 140.96C236.339 141.68 235.979 142.4 235.259 143.48C228.419 156.44 222.659 170.12 217.979 184.16C213.299 199.28 210.779 214.76 210.059 230.6C209.699 233.48 205.379 233.48 205.379 230.6C203.579 211.88 208.619 192.8 214.739 175.52C220.499 159.68 228.059 144.2 236.699 129.44C251.459 104.24 269.459 80.84 290.339 60.32C300.779 50.24 311.939 40.88 323.459 32.24C329.219 27.92 335.339 23.6 341.459 20C346.499 17.48 354.419 16.76 355.499 24.32ZM350.459 27.56C350.819 25.76 351.179 23.6 348.659 22.88C347.579 22.88 345.779 23.6 344.699 23.96C338.939 26.84 333.179 31.52 328.139 35.48C322.379 39.44 316.979 43.76 311.579 48.44C301.139 57.08 291.419 66.8 282.059 76.88C265.499 95.24 250.739 115.4 238.859 137C239.219 137 239.579 137 239.579 137C239.939 136.64 240.299 136.64 240.659 136.64C252.899 130.52 264.779 123.32 275.579 115.4C286.379 107.84 296.459 99.92 306.179 90.92C317.339 80.48 327.779 69.32 336.419 57.08C341.099 50.96 345.059 44.48 347.579 37.64C349.019 34.4 350.099 30.8 350.459 27.56Z" fill="#C1995B"/>
<path d="M363.667 178.04C364.747 177.68 365.467 178.76 365.107 179.48C362.587 184.52 357.547 189.2 353.587 192.8C349.267 196.76 344.227 200 339.187 202.88C331.267 207.92 322.627 211.16 312.907 212.96C303.907 214.4 294.187 214.76 285.547 211.16C276.187 207.2 271.867 197.48 273.307 187.4C274.387 182.36 276.547 176.96 279.067 172.28C281.947 167.96 285.187 162.92 289.147 159.32C289.867 158.96 290.587 159.68 290.227 160.04C285.547 169.76 278.347 180.2 278.707 191.36C279.427 211.88 305.707 209.72 319.747 206.12C328.027 203.96 335.227 200 342.427 195.32C346.387 192.8 349.627 189.92 353.227 187.04C356.827 184.52 360.067 180.56 363.667 178.04ZM297.787 148.52C295.627 148.88 293.827 147.8 293.467 146C292.747 144.2 293.467 142.76 294.907 141.32C295.627 140.6 296.707 139.52 297.787 139.52C298.867 139.16 300.667 138.8 301.747 139.88C303.547 141.32 303.547 143.48 302.467 145.28C301.387 146.72 299.587 148.52 297.787 148.52Z" fill="#C1995B"/>
<path d="M430.722 167.24C433.602 171.92 427.842 178.04 425.322 181.28C421.722 185.96 418.122 190.28 413.802 193.88C405.522 200.72 395.802 207.2 385.722 210.08C378.162 212.24 367.002 212.24 364.482 203.24C364.122 201.44 366.642 200.36 367.362 201.8C371.682 211.88 386.802 205.4 393.282 202.16C403.722 197.12 413.082 189.92 420.642 181.28C422.082 179.12 423.882 176.96 425.322 174.8C426.042 173.72 427.482 171.92 427.482 170.48C427.482 168.68 426.042 168.32 424.602 168.32C419.562 168.32 414.162 170.48 409.482 171.92C399.762 175.16 390.762 180.2 382.482 185.96C364.482 198.56 350.802 215.48 340.002 234.2C337.122 238.88 334.602 243.92 332.082 248.6C329.202 255.08 326.682 261.56 323.802 268.4C311.562 299.36 300.762 331.4 290.682 363.44C289.962 365.6 286.002 364.88 286.722 362.36C287.802 359.48 288.522 356.6 289.242 354.08C297.162 329.24 304.362 304.4 313.722 279.92C317.682 270.2 322.002 260.12 326.682 250.4C332.082 238.16 337.842 225.92 343.602 214.04C358.722 184.16 375.642 155 397.242 129.44C397.962 128.36 399.762 129.8 399.042 130.88C387.882 146 377.442 161.48 367.722 177.68C360.522 190.28 353.682 202.88 347.202 215.48C361.602 196.04 379.242 179.48 402.642 170.12C407.682 167.96 413.082 166.52 418.482 165.44C422.442 164.36 428.202 162.92 430.722 167.24Z" fill="#C1995B"/>
<path d="M522.128 167.24C525.008 171.92 519.248 178.04 516.728 181.28C513.128 185.96 509.528 190.28 505.208 193.88C496.928 200.72 487.208 207.2 477.128 210.08C469.568 212.24 458.408 212.24 455.888 203.24C455.528 201.44 458.048 200.36 458.768 201.8C463.088 211.88 478.208 205.4 484.688 202.16C495.128 197.12 504.488 189.92 512.048 181.28C513.488 179.12 515.288 176.96 516.728 174.8C517.448 173.72 518.888 171.92 518.888 170.48C518.888 168.68 517.448 168.32 516.008 168.32C510.968 168.32 505.568 170.48 500.888 171.92C491.168 175.16 482.168 180.2 473.888 185.96C455.888 198.56 442.208 215.48 431.408 234.2C428.528 238.88 426.008 243.92 423.488 248.6C420.608 255.08 418.088 261.56 415.208 268.4C402.968 299.36 392.168 331.4 382.088 363.44C381.368 365.6 377.408 364.88 378.128 362.36C379.208 359.48 379.928 356.6 380.648 354.08C388.568 329.24 395.768 304.4 405.128 279.92C409.088 270.2 413.408 260.12 418.088 250.4C423.488 238.16 429.248 225.92 435.008 214.04C450.128 184.16 467.048 155 488.648 129.44C489.368 128.36 491.168 129.8 490.448 130.88C479.288 146 468.848 161.48 459.128 177.68C451.928 190.28 445.088 202.88 438.608 215.48C453.008 196.04 470.648 179.48 494.048 170.12C499.088 167.96 504.488 166.52 509.888 165.44C513.848 164.36 519.608 162.92 522.128 167.24Z" fill="#C1995B"/>
<path d="M631.909 178.04C632.989 177.68 633.709 178.76 633.349 179.48C630.829 184.52 625.789 189.2 621.829 192.8C617.509 196.76 612.469 200 607.429 202.88C599.509 207.92 590.869 211.16 581.149 212.96C572.149 214.4 562.429 214.76 553.789 211.16C544.429 207.2 540.109 197.48 541.549 187.4C542.629 182.36 544.789 176.96 547.309 172.28C550.189 167.96 553.429 162.92 557.389 159.32C558.109 158.96 558.829 159.68 558.469 160.04C553.789 169.76 546.589 180.2 546.949 191.36C547.669 211.88 573.949 209.72 587.989 206.12C596.269 203.96 603.469 200 610.669 195.32C614.629 192.8 617.869 189.92 621.469 187.04C625.069 184.52 628.309 180.56 631.909 178.04ZM566.029 148.52C563.869 148.88 562.069 147.8 561.709 146C560.989 144.2 561.709 142.76 563.149 141.32C563.869 140.6 564.949 139.52 566.029 139.52C567.109 139.16 568.909 138.8 569.989 139.88C571.789 141.32 571.789 143.48 570.709 145.28C569.629 146.72 567.829 148.52 566.029 148.52Z" fill="#C1995B"/>
<path d="M766.298 181.64C767.738 180.56 769.178 182.72 768.098 184.16C762.698 189.92 756.218 194.6 749.378 198.56C742.538 202.88 735.338 206.48 727.778 209C721.298 211.16 714.458 212.6 707.618 212.96C702.938 212.96 696.818 212.24 693.578 207.92C690.338 202.88 692.138 196.04 693.218 190.64C693.938 185.24 696.458 176.24 689.978 173.36C685.298 171.2 678.818 173.36 674.498 174.8C666.938 176.96 659.738 180.56 652.538 184.16C645.698 187.76 639.218 192.08 633.098 197.12C630.218 199.64 627.698 202.16 624.818 204.68C622.658 206.84 620.138 208.64 618.698 211.52C617.618 214.04 613.298 212.24 614.378 209.72C623.378 187.04 638.858 165.08 659.738 152.12C660.458 151.76 661.178 152.84 660.818 153.2C651.818 161.48 643.538 169.76 636.338 179.48C632.018 185.24 628.418 191.36 625.178 197.84C626.978 196.04 628.778 194.6 630.578 193.16C637.058 187.4 644.258 182.72 651.818 179.12C659.018 175.52 666.218 171.92 673.778 169.76C678.458 168.68 684.218 167.24 689.258 168.32C703.298 171.2 697.538 188.84 696.458 198.2C696.098 201.8 696.098 205.4 699.338 207.2C701.858 208.64 705.098 208.64 707.618 208.64C714.818 208.28 721.658 206.48 728.138 204.32C735.338 201.8 741.818 198.2 748.298 194.24C754.418 190.64 760.178 185.96 766.298 181.64Z" fill="#C1995B"/>
<path d="M812.378 163.64C814.178 160.76 818.858 163.28 817.058 166.16C813.098 171.92 809.498 177.68 806.258 183.8C794.018 207.2 785.018 232.04 774.218 256.16C771.698 261.92 769.178 267.68 766.298 273.44C774.578 274.16 782.858 276.32 790.778 279.2C791.858 279.92 791.858 281.72 790.418 281.72C785.018 281 779.978 280.64 774.578 280.28C770.978 279.92 767.378 279.56 763.778 279.56C758.738 289.64 753.698 299.72 748.658 309.8C729.578 346.16 706.538 382.52 674.858 408.8C659.738 421.76 642.458 431.84 623.378 437.6C613.658 440.48 602.498 442.28 592.778 438.32C581.618 434 578.018 422.48 578.018 410.96C578.738 385.76 592.778 362.72 608.618 344C623.378 326.36 641.018 311.6 660.818 299.72C680.258 287.84 701.498 279.2 723.818 275.24C736.058 273.08 748.658 272 760.898 272.72C766.658 260.12 772.418 247.16 777.818 233.84C783.938 220.16 789.338 206.12 796.178 192.44C793.658 194.96 791.138 197.12 788.618 199.28C783.938 203.24 779.258 207.2 774.218 210.8C769.178 214.04 763.418 218.36 757.658 219.44C752.618 220.16 747.938 216.92 747.578 211.88C747.218 206.48 750.818 201.44 753.698 197.12C761.618 186.68 770.978 177.32 782.138 170.84C786.818 168.32 791.858 165.8 797.258 165.08C801.578 164.72 805.538 165.8 809.858 167.24C810.578 165.8 811.658 164.72 812.378 163.64ZM752.978 288.92C754.778 285.68 756.218 282.44 757.658 279.2C752.618 279.2 747.578 279.2 742.538 279.56C731.738 280.28 721.298 282.08 710.858 284.96C689.618 290.72 669.458 300.44 651.458 313.04C633.098 325.64 616.538 341.48 603.578 359.84C596.378 369.92 590.618 380.72 587.018 392.24C585.218 398 584.138 404.12 583.778 410.24C583.778 416 584.138 422.48 587.738 427.52C593.858 436.16 606.458 435.8 615.818 434C624.818 431.84 634.178 428.24 642.458 423.92C659.378 415.28 674.498 403.04 687.458 389.36C715.178 360.56 735.338 324.92 752.978 288.92ZM767.018 209.36C783.218 198.92 797.618 185.24 808.778 169.04C804.458 168.32 799.778 167.6 795.458 169.04C790.058 170.48 785.378 173.72 780.698 176.96C771.338 183.08 763.418 191.36 756.938 200.72C754.778 203.6 750.458 209.72 752.978 213.32C755.858 217.64 764.138 211.16 767.018 209.36Z" fill="#C1995B"/>
</svg>
