<svg width="156" height="78" viewBox="0 0 156 78" fill="none" xmlns="http://www.w3.org/2000/svg">
<path fill-rule="evenodd" clip-rule="evenodd" d="M76.922 49.4366L74.9516 49.4366C74.769 50.1103 74.5691 50.7766 74.3524 51.4351L73.4025 51.1226C73.6136 50.4808 73.8084 49.8315 73.9865 49.1749L74.1866 48.4366L76.922 48.4366L76.922 49.4366ZM72.8411 55.3204L71.9297 54.9089C71.3696 56.1495 70.7458 57.3541 70.0629 58.5182L70.9254 59.0242C71.6263 57.8296 72.2663 56.5935 72.8411 55.3204ZM68.6271 62.5029L67.8233 61.9079C67.0156 62.9993 66.1516 64.0447 65.2357 65.0395L65.9714 65.7168C66.9114 64.6957 67.7982 63.6229 68.6271 62.5029ZM62.9867 68.6283L62.328 67.8759C61.3089 68.7681 60.2422 69.6048 59.1323 70.3815L59.7057 71.2008C60.8454 70.4033 61.9406 69.5442 62.9867 68.6283ZM56.1638 73.4007L55.6837 72.5235C54.4997 73.1716 53.2774 73.756 52.0214 74.2722L52.4015 75.1972C53.6921 74.6668 54.9477 74.0664 56.1638 73.4007ZM48.4633 76.5643L48.1887 75.6028C46.8964 75.9718 45.5757 76.2713 44.2307 76.4969L44.3961 77.4831C45.7782 77.2513 47.1354 76.9436 48.4633 76.5643ZM40.2529 77.9427L40.1979 76.9442C39.5256 76.9813 38.8484 77 38.1668 77C37.5484 77 36.9336 76.9846 36.3228 76.9541L36.2729 77.9528C36.9003 77.9842 37.5317 78 38.1668 78C38.8667 78 39.5623 77.9807 40.2529 77.9427ZM32.5047 77.5738L32.6549 76.5851C31.4308 76.3991 30.2263 76.1521 29.0444 75.8472L28.7946 76.8155C30.0091 77.1288 31.2469 77.3827 32.5047 77.5738ZM25.1807 75.6844L25.5274 74.7465C24.3704 74.3187 23.24 73.8339 22.1394 73.2952L21.6998 74.1934C22.8304 74.7467 23.9918 75.2449 25.1807 75.6844ZM18.3862 72.3602L18.9134 71.5105C17.8675 70.8616 16.8553 70.1613 15.8801 69.413L15.2713 70.2064C16.2726 70.9747 17.312 71.6938 18.3862 72.3602ZM12.3839 67.7562L13.0675 67.0263C12.1705 66.1862 11.3139 65.3015 10.5011 64.3758L9.74966 65.0356C10.5839 65.9857 11.4631 66.8937 12.3839 67.7562ZM7.3921 62.0721L8.20394 61.4882C7.48741 60.4919 6.81727 59.4586 6.19678 58.3917L5.33232 58.8944C5.96907 59.9893 6.65678 61.0497 7.3921 62.0721ZM3.58902 55.5326L4.49796 55.1157C3.98736 54.0026 3.52801 52.86 3.12304 51.6911L2.17814 52.0184C2.5937 53.2179 3.06505 54.3904 3.58902 55.5326ZM1.11224 48.3846L2.08424 48.1496C1.79719 46.9623 1.56473 45.7528 1.38975 44.5241L0.399742 44.6651C0.579233 45.9255 0.817717 47.1663 1.11224 48.3846ZM0.044228 40.8942L1.04313 40.8474C1.01449 40.2354 1 39.6195 1 39C1 38.3805 1.01449 37.7646 1.04313 37.1526L0.0442276 37.1058C0.0148547 37.7334 4.72643e-07 38.3649 4.6507e-07 39C4.57497e-07 39.6351 0.0148549 40.2666 0.044228 40.8942ZM0.39974 33.3349L1.38975 33.4759C1.56473 32.2472 1.79719 31.0378 2.08424 29.8504L1.11224 29.6154C0.817715 30.8337 0.579231 32.0745 0.39974 33.3349ZM2.17814 25.9816L3.12304 26.3089C3.52801 25.14 3.98735 23.9974 4.49796 22.8843L3.58902 22.4674C3.06505 23.6096 2.59369 24.7821 2.17814 25.9816ZM5.33232 19.1056L6.19677 19.6084C6.81726 18.5414 7.48741 17.5081 8.20393 16.5118L7.3921 15.928C6.65677 16.9503 5.96906 18.0107 5.33232 19.1056ZM9.74965 12.9644L10.5011 13.6242C11.3139 12.6985 12.1705 11.8139 13.0675 10.9737L12.3839 10.2438C11.4631 11.1063 10.5839 12.0143 9.74965 12.9644ZM15.2713 7.7936L15.8801 8.58698C16.8552 7.83873 17.8675 7.13845 18.9134 6.48952L18.3862 5.63979C17.312 6.30625 16.2726 7.02535 15.2713 7.7936ZM21.6998 3.80662L22.1394 4.7048C23.2399 4.16615 24.3704 3.68131 25.5274 3.25356L25.1807 2.3156C23.9918 2.75512 22.8304 3.25327 21.6998 3.80662ZM28.7945 1.18453L29.0443 2.15282C30.2263 1.84791 31.4308 1.60088 32.6549 1.41486L32.5047 0.426209C31.2469 0.617348 30.0091 0.871193 28.7945 1.18453ZM36.2729 0.0471806L36.3228 1.04594C36.9336 1.01543 37.5484 1 38.1668 1C38.8484 1 39.5256 1.01875 40.198 1.05576L40.2529 0.0572667C39.5623 0.0192494 38.8667 4.63481e-07 38.1668 4.55134e-07C37.5317 4.47562e-07 36.9003 0.0158543 36.2729 0.0471806ZM44.3961 0.516877L44.2307 1.5031C45.5758 1.72873 46.8964 2.02818 48.1887 2.39725L48.4633 1.43569C47.1354 1.05644 45.7783 0.748719 44.3961 0.516877ZM52.4015 2.80283L52.0214 3.72775C53.2774 4.24398 54.4997 4.82838 55.6837 5.47651L56.1639 4.59934C54.9477 3.93359 53.6921 3.33322 52.4015 2.80283ZM59.7057 6.79923L59.1323 7.61855C60.2422 8.39521 61.3089 9.2319 62.328 10.1241L62.9867 9.3717C61.9406 8.4558 60.8454 7.59675 59.7057 6.79923ZM65.9714 12.2832L65.2357 12.9605C66.1516 13.9553 67.0156 15.0007 67.8233 16.0921L68.6271 15.4972C67.7982 14.3771 66.9114 13.3043 65.9714 12.2832ZM70.9254 18.9758L70.0629 19.4819C70.7459 20.6459 71.3696 21.8505 71.9298 23.0912L72.8411 22.6796C72.2663 21.4065 71.6263 20.1704 70.9254 18.9758ZM74.3524 26.5649L73.4025 26.8775C73.6136 27.5192 73.8084 28.1685 73.9865 28.8251L74.1866 29.5634L77.1333 29.5634L77.1333 28.5634L74.9516 28.5634C74.769 27.8897 74.5691 27.2234 74.3524 26.5649ZM81.4967 28.5634L81.4967 29.5634L85.8602 29.5634L85.8602 28.5634L81.4967 28.5634ZM90.2236 28.5634L90.2236 29.5634L94.587 29.5634L94.587 28.5634L90.2236 28.5634ZM98.9504 28.5634L98.9504 29.5634L103.314 29.5634L103.314 28.5634L98.9504 28.5634ZM107.677 28.5634L107.677 29.5634L112.041 29.5634L112.041 28.5634L107.677 28.5634ZM116.404 28.5634L116.404 29.5634L119.586 29.5634L119.586 26.9391L118.586 26.9391L118.586 28.5634L116.404 28.5634ZM118.586 23.6904L119.586 23.6904L119.586 20.4418L118.586 20.4418L118.586 23.6904ZM118.586 17.1931L119.586 17.1931L119.586 15.5688C119.586 15.0348 119.638 14.5139 119.738 14.0109L118.757 13.8168C118.645 14.3834 118.586 14.9693 118.586 15.5688L118.586 17.1931ZM120.098 10.5809L120.929 11.1372C121.512 10.2669 122.261 9.51729 123.131 8.9346L122.575 8.10363C121.596 8.75904 120.753 9.60192 120.098 10.5809ZM125.811 6.76243L126.005 7.74342C126.508 7.64389 127.029 7.59155 127.563 7.59155C128.097 7.59155 128.618 7.64389 129.121 7.74342L129.315 6.76243C128.748 6.65033 128.163 6.59155 127.563 6.59155C126.964 6.59155 126.378 6.65033 125.811 6.76243ZM132.551 8.10363L131.995 8.9346C132.865 9.5173 133.615 10.2669 134.197 11.1372L135.028 10.5809C134.373 9.60192 133.53 8.75904 132.551 8.10363ZM136.369 13.8168L135.388 14.0109C135.488 14.5139 135.54 15.0348 135.54 15.5688L135.54 17.1931L136.54 17.1931L136.54 15.5688C136.54 14.9693 136.482 14.3834 136.369 13.8168ZM136.54 20.4418L135.54 20.4418L135.54 23.6904L136.54 23.6904L136.54 20.4418ZM136.54 26.9391L135.54 26.9391L135.54 29.5634L138.796 29.5634L138.796 28.5634L136.54 28.5634L136.54 26.9391ZM143.308 28.5634L143.308 29.5634L145.563 29.5634C146.195 29.5634 146.811 29.6253 147.406 29.743L147.6 28.762C146.941 28.6317 146.26 28.5634 145.563 28.5634L143.308 28.5634ZM151.362 30.3213L150.806 31.1522C151.835 31.8415 152.722 32.7281 153.411 33.7576L154.242 33.2013C153.48 32.0631 152.5 31.0832 151.362 30.3213ZM155.801 36.9632L154.82 37.1572C154.938 37.7524 155 38.3685 155 39C155 39.6315 154.938 40.2476 154.82 40.8428L155.801 41.0368C155.932 40.3781 156 39.697 156 39C156 38.303 155.932 37.6219 155.801 36.9632ZM154.242 44.7988L153.411 44.2424C152.722 45.2719 151.835 46.1585 150.806 46.8478L151.362 47.6787C152.5 46.9168 153.48 45.9369 154.242 44.7988ZM147.6 49.238L147.406 48.257C146.811 48.3747 146.195 48.4366 145.563 48.4366L143.62 48.4366L143.62 49.4366L145.563 49.4366C146.26 49.4366 146.941 49.3683 147.6 49.238ZM139.733 49.4366L139.733 48.4366L135.846 48.4366L135.846 49.4366L139.733 49.4366ZM131.959 49.4366L131.959 48.4366L128.072 48.4366L128.072 49.4366L131.959 49.4366ZM124.185 49.4366L124.185 48.4366L120.271 48.4366L120.271 49.4366L124.185 49.4366ZM116.33 49.4366L116.33 48.4366L112.389 48.4366L112.389 49.4366L116.33 49.4366ZM108.448 49.4366L108.448 48.4366L104.508 48.4366L104.508 49.4366L108.448 49.4366ZM100.567 49.4366L100.567 48.4366L96.626 48.4366L96.626 49.4366L100.567 49.4366ZM92.6852 49.4366L92.6852 48.4366L88.7444 48.4366L88.7444 49.4366L92.6852 49.4366ZM84.8036 49.4366L84.8036 48.4366L80.8628 48.4366L80.8628 49.4366L84.8036 49.4366Z" fill="#C1995B"/>
</svg>
